{
  "albums": {
    "href": "https://api.spotify.com/v1/me/shows?offset=0&limit=20",
    "limit": 20,
    "next": "https://api.spotify.com/v1/me/shows?offset=1&limit=1",
    "offset": 0,
    "previous": "https://api.spotify.com/v1/me/shows?offset=1&limit=1",
    "total": 4,
    "items": [
      {
        "album_type": "compilation",
        "total_tracks": 9,
        "available_markets": [
          "CA",
          "BR",
          "IT"
        ],
        "external_urls": {
          "spotify": "string"
        },
        "href": "string",
        "id": "3131728dba644e0296bc42f73e14a91f",
        "images": [
          {
            "url": "https://i.scdn.co/image/ab67616d00001e02ff9ca10b55ce82ae553c8228",
            "height": 300,
            "width": 300
          }
        ],
        "name": "string",
        "release_date": "1981-12",
        "release_date_precision": "year",
        "restrictions": {
          "reason": "market"
        },
        "type": "album",
        "uri": "spotify:album:2up3OPMp9Tb4dAKM2erWXQ",
        "artists": [
          {
            "external_urls": {
              "spotify": "string"
            },
            "href": "string",
            "id": "string",
            "name": "string",
            "type": "artist",
            "uri": "string"
          }
        ]
      }
    ]
  }
}